%YAML 1.1
%TAG !u! tag:unity3d.com,2011:
--- !u!74 &7400000
AnimationClip:
  m_ObjectHideFlags: 0
  m_CorrespondingSourceObject: {fileID: 0}
  m_PrefabInstance: {fileID: 0}
  m_PrefabAsset: {fileID: 0}
  m_Name: Reward
  serializedVersion: 6
  m_Legacy: 0
  m_Compressed: 0
  m_UseHighQualityCurve: 1
  m_RotationCurves: []
  m_CompressedRotationCurves: []
  m_EulerCurves: []
  m_PositionCurves: []
  m_ScaleCurves: []
  m_FloatCurves: []
  m_PPtrCurves:
  - curve:
    - time: 0
      value: {fileID: 21300000, guid: 3817fc9614e1e4d8981ae4b5bb9e32bb, type: 3}
    - time: 0.05
      value: {fileID: 21300000, guid: c4562a30a55524171b0e338766d54922, type: 3}
    - time: 0.1
      value: {fileID: 21300000, guid: a20cbb7b66e0a46b58bd680019c8dfff, type: 3}
    - time: 0.15
      value: {fileID: 21300000, guid: b175aa292fc3440f699da0a31bd2f555, type: 3}
    - time: 0.2
      value: {fileID: 21300000, guid: adae52ed3caac4012b9f69a3f694be6b, type: 3}
    - time: 0.25
      value: {fileID: 21300000, guid: 7000923a7bc6b47fba7650a6fbe1b1e2, type: 3}
    - time: 0.3
      value: {fileID: 21300000, guid: 409c2b729256a4b9892a03469a25dcde, type: 3}
    - time: 0.35
      value: {fileID: 21300000, guid: a2a65ae2018ff42298435920ce8c1620, type: 3}
    attribute: m_Sprite
    path: 
    classID: 114
    script: {fileID: 11500000, guid: fe87c0e1cc204ed48ad3b37840f39efc, type: 3}
  m_SampleRate: 60
  m_WrapMode: 0
  m_Bounds:
    m_Center: {x: 0, y: 0, z: 0}
    m_Extent: {x: 0, y: 0, z: 0}
  m_ClipBindingConstant:
    genericBindings:
    - serializedVersion: 2
      path: 0
      attribute: 2015549526
      script: {fileID: 11500000, guid: fe87c0e1cc204ed48ad3b37840f39efc, type: 3}
      typeID: 114
      customType: 0
      isPPtrCurve: 1
    pptrCurveMapping:
    - {fileID: 21300000, guid: 3817fc9614e1e4d8981ae4b5bb9e32bb, type: 3}
    - {fileID: 21300000, guid: c4562a30a55524171b0e338766d54922, type: 3}
    - {fileID: 21300000, guid: a20cbb7b66e0a46b58bd680019c8dfff, type: 3}
    - {fileID: 21300000, guid: b175aa292fc3440f699da0a31bd2f555, type: 3}
    - {fileID: 21300000, guid: adae52ed3caac4012b9f69a3f694be6b, type: 3}
    - {fileID: 21300000, guid: 7000923a7bc6b47fba7650a6fbe1b1e2, type: 3}
    - {fileID: 21300000, guid: 409c2b729256a4b9892a03469a25dcde, type: 3}
    - {fileID: 21300000, guid: a2a65ae2018ff42298435920ce8c1620, type: 3}
  m_AnimationClipSettings:
    serializedVersion: 2
    m_AdditiveReferencePoseClip: {fileID: 0}
    m_AdditiveReferencePoseTime: 0
    m_StartTime: 0
    m_StopTime: 0.36666667
    m_OrientationOffsetY: 0
    m_Level: 0
    m_CycleOffset: 0
    m_HasAdditiveReferencePose: 0
    m_LoopTime: 1
    m_LoopBlend: 0
    m_LoopBlendOrientation: 0
    m_LoopBlendPositionY: 0
    m_LoopBlendPositionXZ: 0
    m_KeepOriginalOrientation: 0
    m_KeepOriginalPositionY: 1
    m_KeepOriginalPositionXZ: 0
    m_HeightFromFeet: 0
    m_Mirror: 0
  m_EditorCurves: []
  m_EulerEditorCurves: []
  m_HasGenericRootTransform: 0
  m_HasMotionFloatCurves: 0
  m_Events: []
