{
    "name": "Unity.Ensign.Editor",
    "references": [
        "Unity.Ensign.Runtime"
    ],
    "optionalUnityReferences": [],
    "includePlatforms": [
        "Editor"
    ],
    "excludePlatforms": [],
    "allowUnsafeCode": false,
    "overrideReferences": true,
    "precompiledReferences": [
        "Ensign.Unity.Editor.dll",
        "Ensign.Common.dll",
        "Ensign.Unity.Base.dll"
    ],
    "autoReferenced": true,
    "defineConstraints": []
}